{
  "items": [
    {
      "external_urls": {
        "spotify": "https://open.spotify.com/artist/6fcTRFpz0yH79qSKfof7lp"
      },
      "followers": {
        "href": null,
        "total": 223979
      },
      "genres": [
        "big room",
        "brostep",
        "chillstep",
        "edm",
        "electro house",
        "electronic trap",
        "pop",
        "progressive house"
      ],
      "href": "https://api.spotify.com/v1/artists/6fcTRFpz0yH79qSKfof7lp",
      "id": "6fcTRFpz0yH79qSKfof7lp",
      "images": [
        {
          "height": 640,
          "url": "https://i.scdn.co/image/8c23aff7d51ca35d9a02006b214fff425e9af2f6",
          "width": 640
        },
        {
          "height": 320,
          "url": "https://i.scdn.co/image/e2c8eb5e0d3c818be369e452a0ba97c64b09fa0a",
          "width": 320
        },
        {
          "height": 160,
          "url": "https://i.scdn.co/image/f44b5077e6385b879c5e5f35b7f788cabda83b92",
          "width": 160
        }
      ],
      "name": "Seven Lions",
      "popularity": 66,
      "type": "artist",
      "uri": "spotify:artist:6fcTRFpz0yH79qSKfof7lp"
    },
    {
      "external_urls": {
        "spotify": "https://open.spotify.com/artist/5cIc3SBFuBLVxJz58W2tU9"
      },
      "followers": {
        "href": null,
        "total": 704982
      },
      "genres": [
        "electropop",
        "indie poptimism",
        "indie r&b",
        "modern rock",
        "pop"
      ],
      "href": "https://api.spotify.com/v1/artists/5cIc3SBFuBLVxJz58W2tU9",
      "id": "5cIc3SBFuBLVxJz58W2tU9",
      "images": [
        {
          "height": 640,
          "url": "https://i.scdn.co/image/08855f6f3b24efed3426583e06b33cc7fcf0f28d",
          "width": 640
        },
        {
          "height": 320,
          "url": "https://i.scdn.co/image/156fce3812656f160642e37815fce84b376244a3",
          "width": 320
        },
        {
          "height": 160,
          "url": "https://i.scdn.co/image/74a042b611c4828c34cb379e012bd85093af98c6",
          "width": 160
        }
      ],
      "name": "Oh Wonder",
      "popularity": 75,
      "type": "artist",
      "uri": "spotify:artist:5cIc3SBFuBLVxJz58W2tU9"
    },
    {
      "external_urls": {
        "spotify": "https://open.spotify.com/artist/4pb4rqWSoGUgxm63xmJ8xc"
      },
      "followers": {
        "href": null,
        "total": 400724
      },
      "genres": [
        "big room",
        "complextro",
        "edm",
        "electro house",
        "electropop",
        "filter house"
      ],
      "href": "https://api.spotify.com/v1/artists/4pb4rqWSoGUgxm63xmJ8xc",
      "id": "4pb4rqWSoGUgxm63xmJ8xc",
      "images": [
        {
          "height": 640,
          "url": "https://i.scdn.co/image/0f7ac71d433dec24ec02024825af7b4f137847fe",
          "width": 640
        },
        {
          "height": 320,
          "url": "https://i.scdn.co/image/e61504deab466e772226fd6d699c28095a37ded2",
          "width": 320
        },
        {
          "height": 160,
          "url": "https://i.scdn.co/image/f3dca65ade53033203477496741b64555221e612",
          "width": 160
        }
      ],
      "name": "Madeon",
      "popularity": 62,
      "type": "artist",
      "uri": "spotify:artist:4pb4rqWSoGUgxm63xmJ8xc"
    },
    {
      "external_urls": {
        "spotify": "https://open.spotify.com/artist/12Chz98pHFMPJEknJQMWvI"
      },
      "followers": {
        "href": null,
        "total": 4139056
      },
      "genres": [
        "modern rock",
        "permanent wave",
        "piano rock",
        "post-grunge",
        "rock"
      ],
      "href": "https://api.spotify.com/v1/artists/12Chz98pHFMPJEknJQMWvI",
      "id": "12Chz98pHFMPJEknJQMWvI",
      "images": [
        {
          "height": 640,
          "url": "https://i.scdn.co/image/208f34dd84982db66be5d07ada8b2d9d6e07dca8",
          "width": 640
        },
        {
          "height": 320,
          "url": "https://i.scdn.co/image/dc47b98fdf7d7a8d3418f277e008b7ad8d414c99",
          "width": 320
        },
        {
          "height": 160,
          "url": "https://i.scdn.co/image/30b26b99a08ef30d751a01f9189c25a460d78c10",
          "width": 160
        }
      ],
      "name": "Muse",
      "popularity": 79,
      "type": "artist",
      "uri": "spotify:artist:12Chz98pHFMPJEknJQMWvI"
    },
    {
      "external_urls": {
        "spotify": "https://open.spotify.com/artist/0QaiCsyOUjBgLqsbABu07O"
      },
      "followers": {
        "href": null,
        "total": 19894
      },
      "genres": [
        "catstep",
        "complextro",
        "edm",
        "electro house",
        "tracestep"
      ],
      "href": "https://api.spotify.com/v1/artists/0QaiCsyOUjBgLqsbABu07O",
      "id": "0QaiCsyOUjBgLqsbABu07O",
      "images": [
        {
          "height": 640,
          "url": "https://i.scdn.co/image/044100fbe6def95912292967f1e7b157fe71e348",
          "width": 640
        },
        {
          "height": 320,
          "url": "https://i.scdn.co/image/e688ac0c5cd5afe92de3387180cb8e806ecaa0f9",
          "width": 320
        },
        {
          "height": 160,
          "url": "https://i.scdn.co/image/f800c0d46861c3d9968baa8b66969f3a29561872",
          "width": 160
        }
      ],
      "name": "Puppet",
      "popularity": 47,
      "type": "artist",
      "uri": "spotify:artist:0QaiCsyOUjBgLqsbABu07O"
    },
    {
      "external_urls": {
        "spotify": "https://open.spotify.com/artist/0jcaMhfyinUx3Pj8w4nmWZ"
      },
      "followers": {
        "href": null,
        "total": 11913
      },
      "genres": [
        "indiecoustica"
      ],
      "href": "https://api.spotify.com/v1/artists/0jcaMhfyinUx3Pj8w4nmWZ",
      "id": "0jcaMhfyinUx3Pj8w4nmWZ",
      "images": [
        {
          "height": 640,
          "url": "https://i.scdn.co/image/264924b4645616e6c41ae211fb3f8b9f86daa3db",
          "width": 640
        },
        {
          "height": 320,
          "url": "https://i.scdn.co/image/c605edf2e0b54af43d48ba57f6eaef6ed11f1566",
          "width": 320
        },
        {
          "height": 160,
          "url": "https://i.scdn.co/image/1151fcba4f5e2f1693f4da6d49cd4cfee5a4f0b5",
          "width": 160
        }
      ],
      "name": "WILD",
      "popularity": 52,
      "type": "artist",
      "uri": "spotify:artist:0jcaMhfyinUx3Pj8w4nmWZ"
    },
    {
      "external_urls": {
        "spotify": "https://open.spotify.com/artist/60sodhodkZh9N9pMudJnfa"
      },
      "followers": {
        "href": null,
        "total": 11295
      },
      "genres": [
        "complextro",
        "electro trash"
      ],
      "href": "https://api.spotify.com/v1/artists/60sodhodkZh9N9pMudJnfa",
      "id": "60sodhodkZh9N9pMudJnfa",
      "images": [
        {
          "height": 640,
          "url": "https://i.scdn.co/image/13230059b35282dec9e59b5bbb1b7718587d85db",
          "width": 640
        },
        {
          "height": 300,
          "url": "https://i.scdn.co/image/bbc19eab6e869dc2017aa94a2be49b919e73a898",
          "width": 300
        },
        {
          "height": 64,
          "url": "https://i.scdn.co/image/f841f4558a65822ca84dfcc877b88e412e58073e",
          "width": 64
        }
      ],
      "name": "The Noisy Freaks",
      "popularity": 35,
      "type": "artist",
      "uri": "spotify:artist:60sodhodkZh9N9pMudJnfa"
    },
    {
      "external_urls": {
        "spotify": "https://open.spotify.com/artist/2DaxqgrOhkeH0fpeiQq2f4"
      },
      "followers": {
        "href": null,
        "total": 3123305
      },
      "genres": [
        "britpop",
        "madchester",
        "permanent wave",
        "rock"
      ],
      "href": "https://api.spotify.com/v1/artists/2DaxqgrOhkeH0fpeiQq2f4",
      "id": "2DaxqgrOhkeH0fpeiQq2f4",
      "images": [
        {
          "height": 640,
          "url": "https://i.scdn.co/image/2a8c10fe954e2038fb74251cba601a5594cc5878",
          "width": 640
        },
        {
          "height": 320,
          "url": "https://i.scdn.co/image/87d18c79bbfdb1905bb202d200e1c191afc46aa5",
          "width": 320
        },
        {
          "height": 160,
          "url": "https://i.scdn.co/image/b4d024ebb4863438b92a1b029bff7f9737263a57",
          "width": 160
        }
      ],
      "name": "Oasis",
      "popularity": 80,
      "type": "artist",
      "uri": "spotify:artist:2DaxqgrOhkeH0fpeiQq2f4"
    },
    {
      "external_urls": {
        "spotify": "https://open.spotify.com/artist/0X2BH1fck6amBIoJhDVmmJ"
      },
      "followers": {
        "href": null,
        "total": 5310986
      },
      "genres": [
        "dance pop",
        "edm",
        "electropop",
        "metropopolis",
        "pop",
        "post-teen pop",
        "r&b"
      ],
      "href": "https://api.spotify.com/v1/artists/0X2BH1fck6amBIoJhDVmmJ",
      "id": "0X2BH1fck6amBIoJhDVmmJ",
      "images": [
        {
          "height": 640,
          "url": "https://i.scdn.co/image/c2fe5d1e00a76b69ecd53164304ce2004f6064e9",
          "width": 640
        },
        {
          "height": 320,
          "url": "https://i.scdn.co/image/dd1852b2a3e4aebc2bb779d642acfa782afad0e7",
          "width": 320
        },
        {
          "height": 160,
          "url": "https://i.scdn.co/image/848a19e113ef29d7e5a485a4c3cf2116745ddbff",
          "width": 160
        }
      ],
      "name": "Ellie Goulding",
      "popularity": 79,
      "type": "artist",
      "uri": "spotify:artist:0X2BH1fck6amBIoJhDVmmJ"
    },
    {
      "external_urls": {
        "spotify": "https://open.spotify.com/artist/4q6hTJmeYXCwp0ivdtoSWA"
      },
      "followers": {
        "href": null,
        "total": 142262
      },
      "genres": [
        "dance pop",
        "grime",
        "uk hip hop"
      ],
      "href": "https://api.spotify.com/v1/artists/4q6hTJmeYXCwp0ivdtoSWA",
      "id": "4q6hTJmeYXCwp0ivdtoSWA",
      "images": [
        {
          "height": 640,
          "url": "https://i.scdn.co/image/d383b2758b88d6c8b79ae0c8413c691773657807",
          "width": 640
        },
        {
          "height": 320,
          "url": "https://i.scdn.co/image/9f4fa589b41aadc6c5fc100fefe4faec251eacfa",
          "width": 320
        },
        {
          "height": 160,
          "url": "https://i.scdn.co/image/7739c54ab7a78de824d73e8283e8d80652b8dce5",
          "width": 160
        }
      ],
      "name": "Dappy",
      "popularity": 62,
      "type": "artist",
      "uri": "spotify:artist:4q6hTJmeYXCwp0ivdtoSWA"
    }
  ],
  "total": 50,
  "limit": 10,
  "offset": 5,
  "href": "https://api.spotify.com/v1/me/top/artists?limit=10&offset=5",
  "previous": null,
  "next": "https://api.spotify.com/v1/me/top/artists?limit=10&offset=15"
}