{
  "items": [
    {
      "album": {
        "album_type": "SINGLE",
        "artists": [
          {
            "external_urls": {
              "spotify": "https://open.spotify.com/artist/0jcaMhfyinUx3Pj8w4nmWZ"
            },
            "href": "https://api.spotify.com/v1/artists/0jcaMhfyinUx3Pj8w4nmWZ",
            "id": "0jcaMhfyinUx3Pj8w4nmWZ",
            "name": "WILD",
            "type": "artist",
            "uri": "spotify:artist:0jcaMhfyinUx3Pj8w4nmWZ"
          }
        ],
        "external_urls": {
          "spotify": "https://open.spotify.com/album/6FqNBYQMkwnJVmnfCujDfk"
        },
        "href": "https://api.spotify.com/v1/albums/6FqNBYQMkwnJVmnfCujDfk",
        "id": "6FqNBYQMkwnJVmnfCujDfk",
        "images": [
          {
            "height": 640,
            "url": "https://i.scdn.co/image/058847e04d37f21852f9eef284389020a699e7ae",
            "width": 640
          },
          {
            "height": 300,
            "url": "https://i.scdn.co/image/05700b2fcc16b9e2eecb9b3a8e2987fd46790894",
            "width": 300
          },
          {
            "height": 64,
            "url": "https://i.scdn.co/image/7bf97a551ea6db2ed030652c9b5885eecb6ecb77",
            "width": 64
          }
        ],
        "name": "Back to You",
        "release_date": "2015-12-16",
        "release_date_precision": "day",
        "type": "album",
        "uri": "spotify:album:6FqNBYQMkwnJVmnfCujDfk"
      },
      "artists": [
        {
          "external_urls": {
            "spotify": "https://open.spotify.com/artist/0jcaMhfyinUx3Pj8w4nmWZ"
          },
          "href": "https://api.spotify.com/v1/artists/0jcaMhfyinUx3Pj8w4nmWZ",
          "id": "0jcaMhfyinUx3Pj8w4nmWZ",
          "name": "WILD",
          "type": "artist",
          "uri": "spotify:artist:0jcaMhfyinUx3Pj8w4nmWZ"
        }
      ],
      "disc_number": 1,
      "duration_ms": 195000,
      "explicit": false,
      "external_ids": {
        "isrc": "TCACK1574424"
      },
      "external_urls": {
        "spotify": "https://open.spotify.com/track/0WCbGo5dCIi3w8U0DnDPDh"
      },
      "href": "https://api.spotify.com/v1/tracks/0WCbGo5dCIi3w8U0DnDPDh",
      "id": "0WCbGo5dCIi3w8U0DnDPDh",
      "is_local": false,
      "is_playable": true,
      "name": "Back to You",
      "popularity": 54,
      "preview_url": "https://p.scdn.co/mp3-preview/a346ead2b9dc508f64b1c0fd4f8593b6058e578f?cid=null",
      "track_number": 1,
      "type": "track",
      "uri": "spotify:track:0WCbGo5dCIi3w8U0DnDPDh"
    },
    {
      "album": {
        "album_type": "SINGLE",
        "artists": [
          {
            "external_urls": {
              "spotify": "https://open.spotify.com/artist/0jcaMhfyinUx3Pj8w4nmWZ"
            },
            "href": "https://api.spotify.com/v1/artists/0jcaMhfyinUx3Pj8w4nmWZ",
            "id": "0jcaMhfyinUx3Pj8w4nmWZ",
            "name": "WILD",
            "type": "artist",
            "uri": "spotify:artist:0jcaMhfyinUx3Pj8w4nmWZ"
          }
        ],
        "external_urls": {
          "spotify": "https://open.spotify.com/album/3ZnLqfMPmLSajyNJXIRK6v"
        },
        "href": "https://api.spotify.com/v1/albums/3ZnLqfMPmLSajyNJXIRK6v",
        "id": "3ZnLqfMPmLSajyNJXIRK6v",
        "images": [
          {
            "height": 640,
            "url": "https://i.scdn.co/image/058847e04d37f21852f9eef284389020a699e7ae",
            "width": 640
          },
          {
            "height": 300,
            "url": "https://i.scdn.co/image/05700b2fcc16b9e2eecb9b3a8e2987fd46790894",
            "width": 300
          },
          {
            "height": 64,
            "url": "https://i.scdn.co/image/7bf97a551ea6db2ed030652c9b5885eecb6ecb77",
            "width": 64
          }
        ],
        "name": "Vagabond",
        "release_date": "2015-09-01",
        "release_date_precision": "day",
        "type": "album",
        "uri": "spotify:album:3ZnLqfMPmLSajyNJXIRK6v"
      },
      "artists": [
        {
          "external_urls": {
            "spotify": "https://open.spotify.com/artist/0jcaMhfyinUx3Pj8w4nmWZ"
          },
          "href": "https://api.spotify.com/v1/artists/0jcaMhfyinUx3Pj8w4nmWZ",
          "id": "0jcaMhfyinUx3Pj8w4nmWZ",
          "name": "WILD",
          "type": "artist",
          "uri": "spotify:artist:0jcaMhfyinUx3Pj8w4nmWZ"
        }
      ],
      "disc_number": 1,
      "duration_ms": 171891,
      "explicit": false,
      "external_ids": {
        "isrc": "TCACH1567120"
      },
      "external_urls": {
        "spotify": "https://open.spotify.com/track/2JMhMvgCgWIHH5tjSpBaKn"
      },
      "href": "https://api.spotify.com/v1/tracks/2JMhMvgCgWIHH5tjSpBaKn",
      "id": "2JMhMvgCgWIHH5tjSpBaKn",
      "is_local": false,
      "is_playable": true,
      "name": "Vagabond",
      "popularity": 48,
      "preview_url": "https://p.scdn.co/mp3-preview/33d34013e2b86fc7501436ef33484326924c1038?cid=null",
      "track_number": 1,
      "type": "track",
      "uri": "spotify:track:2JMhMvgCgWIHH5tjSpBaKn"
    },
    {
      "album": {
        "album_type": "SINGLE",
        "artists": [
          {
            "external_urls": {
              "spotify": "https://open.spotify.com/artist/0DgTGEWTk0pHJ3SB0tDzzf"
            },
            "href": "https://api.spotify.com/v1/artists/0DgTGEWTk0pHJ3SB0tDzzf",
            "id": "0DgTGEWTk0pHJ3SB0tDzzf",
            "name": "Sparkee",
            "type": "artist",
            "uri": "spotify:artist:0DgTGEWTk0pHJ3SB0tDzzf"
          }
        ],
        "external_urls": {
          "spotify": "https://open.spotify.com/album/3fYEOgViQQWSNqmIISFwoD"
        },
        "href": "https://api.spotify.com/v1/albums/3fYEOgViQQWSNqmIISFwoD",
        "id": "3fYEOgViQQWSNqmIISFwoD",
        "images": [
          {
            "height": 640,
            "url": "https://i.scdn.co/image/fa3c3fea65a9a175bcf1fcd36d3c71763b5dc451",
            "width": 640
          },
          {
            "height": 300,
            "url": "https://i.scdn.co/image/c76f990296ba4b77c85b569ca311f5eefbcf75e5",
            "width": 300
          },
          {
            "height": 64,
            "url": "https://i.scdn.co/image/da194bbe320834f7cc18b51ab2a69ea0fcc93d3e",
            "width": 64
          }
        ],
        "name": "Strobe",
        "release_date": "2018-02-16",
        "release_date_precision": "day",
        "type": "album",
        "uri": "spotify:album:3fYEOgViQQWSNqmIISFwoD"
      },
      "artists": [
        {
          "external_urls": {
            "spotify": "https://open.spotify.com/artist/0DgTGEWTk0pHJ3SB0tDzzf"
          },
          "href": "https://api.spotify.com/v1/artists/0DgTGEWTk0pHJ3SB0tDzzf",
          "id": "0DgTGEWTk0pHJ3SB0tDzzf",
          "name": "Sparkee",
          "type": "artist",
          "uri": "spotify:artist:0DgTGEWTk0pHJ3SB0tDzzf"
        }
      ],
      "disc_number": 1,
      "duration_ms": 219062,
      "explicit": false,
      "external_ids": {
        "isrc": "QZARB1867596"
      },
      "external_urls": {
        "spotify": "https://open.spotify.com/track/6T3nXjGX5dEbBesG68QZRZ"
      },
      "href": "https://api.spotify.com/v1/tracks/6T3nXjGX5dEbBesG68QZRZ",
      "id": "6T3nXjGX5dEbBesG68QZRZ",
      "is_local": false,
      "is_playable": true,
      "name": "Strobe",
      "popularity": 47,
      "preview_url": "https://p.scdn.co/mp3-preview/e76fc1132ccb23bf070b2992a47a497d89842292?cid=null",
      "track_number": 1,
      "type": "track",
      "uri": "spotify:track:6T3nXjGX5dEbBesG68QZRZ"
    },
    {
      "album": {
        "album_type": "ALBUM",
        "artists": [
          {
            "external_urls": {
              "spotify": "https://open.spotify.com/artist/6fcTRFpz0yH79qSKfof7lp"
            },
            "href": "https://api.spotify.com/v1/artists/6fcTRFpz0yH79qSKfof7lp",
            "id": "6fcTRFpz0yH79qSKfof7lp",
            "name": "Seven Lions",
            "type": "artist",
            "uri": "spotify:artist:6fcTRFpz0yH79qSKfof7lp"
          }
        ],
        "external_urls": {
          "spotify": "https://open.spotify.com/album/3UEPDKFdKMfM3cGgUPbEDj"
        },
        "href": "https://api.spotify.com/v1/albums/3UEPDKFdKMfM3cGgUPbEDj",
        "id": "3UEPDKFdKMfM3cGgUPbEDj",
        "images": [
          {
            "height": 640,
            "url": "https://i.scdn.co/image/e0b059ad7d8c7c14f639b8f819dd05bc0e3641d3",
            "width": 640
          },
          {
            "height": 300,
            "url": "https://i.scdn.co/image/409741ae5e4b904ea5ada6334d527cef4e4931ec",
            "width": 300
          },
          {
            "height": 64,
            "url": "https://i.scdn.co/image/2972a347aca3fe5e9122e1a0a8b57cae5198cbcc",
            "width": 64
          }
        ],
        "name": "Where I Won't Be Found",
        "release_date": "2017-06-26",
        "release_date_precision": "day",
        "type": "album",
        "uri": "spotify:album:3UEPDKFdKMfM3cGgUPbEDj"
      },
      "artists": [
        {
          "external_urls": {
            "spotify": "https://open.spotify.com/artist/6fcTRFpz0yH79qSKfof7lp"
          },
          "href": "https://api.spotify.com/v1/artists/6fcTRFpz0yH79qSKfof7lp",
          "id": "6fcTRFpz0yH79qSKfof7lp",
          "name": "Seven Lions",
          "type": "artist",
          "uri": "spotify:artist:6fcTRFpz0yH79qSKfof7lp"
        },
        {
          "external_urls": {
            "spotify": "https://open.spotify.com/artist/1sY8XHjk6WoA2B5YIGV1S2"
          },
          "href": "https://api.spotify.com/v1/artists/1sY8XHjk6WoA2B5YIGV1S2",
          "id": "1sY8XHjk6WoA2B5YIGV1S2",
          "name": "Skyler Stonestreet",
          "type": "artist",
          "uri": "spotify:artist:1sY8XHjk6WoA2B5YIGV1S2"
        }
      ],
      "disc_number": 1,
      "duration_ms": 210884,
      "explicit": false,
      "external_ids": {
        "isrc": "TCACY1786589"
      },
      "external_urls": {
        "spotify": "https://open.spotify.com/track/720VccfW5GV9ZM4OKAAGUg"
      },
      "href": "https://api.spotify.com/v1/tracks/720VccfW5GV9ZM4OKAAGUg",
      "id": "720VccfW5GV9ZM4OKAAGUg",
      "is_local": false,
      "is_playable": true,
      "name": "Freesol",
      "popularity": 58,
      "preview_url": "https://p.scdn.co/mp3-preview/ae3efa49b7c6cb08056afc15764dccb957c3727b?cid=null",
      "track_number": 1,
      "type": "track",
      "uri": "spotify:track:720VccfW5GV9ZM4OKAAGUg"
    },
    {
      "album": {
        "album_type": "ALBUM",
        "artists": [
          {
            "external_urls": {
              "spotify": "https://open.spotify.com/artist/2qxJFvFYMEDqd7ui6kSAcq"
            },
            "href": "https://api.spotify.com/v1/artists/2qxJFvFYMEDqd7ui6kSAcq",
            "id": "2qxJFvFYMEDqd7ui6kSAcq",
            "name": "Zedd",
            "type": "artist",
            "uri": "spotify:artist:2qxJFvFYMEDqd7ui6kSAcq"
          }
        ],
        "external_urls": {
          "spotify": "https://open.spotify.com/album/4jKdXIJckKh7la6xHuKwRT"
        },
        "href": "https://api.spotify.com/v1/albums/4jKdXIJckKh7la6xHuKwRT",
        "id": "4jKdXIJckKh7la6xHuKwRT",
        "images": [
          {
            "height": 640,
            "url": "https://i.scdn.co/image/9d2f0e01f2a2be27141b855b996e3b9f15a6c4b7",
            "width": 640
          },
          {
            "height": 300,
            "url": "https://i.scdn.co/image/4aedc341ba12103ba3833632bdf8c44f5c91e007",
            "width": 300
          },
          {
            "height": 64,
            "url": "https://i.scdn.co/image/243c2613aae438de965b872388125bfa56ddaa5f",
            "width": 64
          }
        ],
        "name": "True Colors",
        "release_date": "2015-05-18",
        "release_date_precision": "day",
        "type": "album",
        "uri": "spotify:album:4jKdXIJckKh7la6xHuKwRT"
      },
      "artists": [
        {
          "external_urls": {
            "spotify": "https://open.spotify.com/artist/2qxJFvFYMEDqd7ui6kSAcq"
          },
          "href": "https://api.spotify.com/v1/artists/2qxJFvFYMEDqd7ui6kSAcq",
          "id": "2qxJFvFYMEDqd7ui6kSAcq",
          "name": "Zedd",
          "type": "artist",
          "uri": "spotify:artist:2qxJFvFYMEDqd7ui6kSAcq"
        },
        {
          "external_urls": {
            "spotify": "https://open.spotify.com/artist/50JJSqHUf2RQ9xsHs0KMHg"
          },
          "href": "https://api.spotify.com/v1/artists/50JJSqHUf2RQ9xsHs0KMHg",
          "id": "50JJSqHUf2RQ9xsHs0KMHg",
          "name": "Jon Bellion",
          "type": "artist",
          "uri": "spotify:artist:50JJSqHUf2RQ9xsHs0KMHg"
        }
      ],
      "disc_number": 1,
      "duration_ms": 218293,
      "explicit": false,
      "external_ids": {
        "isrc": "USUM71505090"
      },
      "external_urls": {
        "spotify": "https://open.spotify.com/track/2ISSQPb9LHHiV6ng2NXosL"
      },
      "href": "https://api.spotify.com/v1/tracks/2ISSQPb9LHHiV6ng2NXosL",
      "id": "2ISSQPb9LHHiV6ng2NXosL",
      "is_local": false,
      "is_playable": true,
      "linked_from": {
        "external_urls": {
          "spotify": "https://open.spotify.com/track/7FJP35tUJ2121EJsFpU1Gh"
        },
        "href": "https://api.spotify.com/v1/tracks/7FJP35tUJ2121EJsFpU1Gh",
        "id": "7FJP35tUJ2121EJsFpU1Gh",
        "type": "track",
        "uri": "spotify:track:7FJP35tUJ2121EJsFpU1Gh"
      },
      "name": "Beautiful Now",
      "popularity": 70,
      "preview_url": null,
      "track_number": 3,
      "type": "track",
      "uri": "spotify:track:2ISSQPb9LHHiV6ng2NXosL"
    },
    {
      "album": {
        "album_type": "ALBUM",
        "artists": [
          {
            "external_urls": {
              "spotify": "https://open.spotify.com/artist/7Ln80lUS6He07XvHI8qqHH"
            },
            "href": "https://api.spotify.com/v1/artists/7Ln80lUS6He07XvHI8qqHH",
            "id": "7Ln80lUS6He07XvHI8qqHH",
            "name": "Arctic Monkeys",
            "type": "artist",
            "uri": "spotify:artist:7Ln80lUS6He07XvHI8qqHH"
          }
        ],
        "external_urls": {
          "spotify": "https://open.spotify.com/album/78bpIziExqiI9qztvNFlQu"
        },
        "href": "https://api.spotify.com/v1/albums/78bpIziExqiI9qztvNFlQu",
        "id": "78bpIziExqiI9qztvNFlQu",
        "images": [
          {
            "height": 640,
            "url": "https://i.scdn.co/image/f513ae2d610d9255913795d4bc28ca33c827b232",
            "width": 640
          },
          {
            "height": 300,
            "url": "https://i.scdn.co/image/f1e6688873c2bba1d729288e6b0f6d1137d9777b",
            "width": 300
          },
          {
            "height": 64,
            "url": "https://i.scdn.co/image/a16aa05eb1610d314c63afd580df9e92ce46cc50",
            "width": 64
          }
        ],
        "name": "AM",
        "release_date": "2013-09-09",
        "release_date_precision": "day",
        "type": "album",
        "uri": "spotify:album:78bpIziExqiI9qztvNFlQu"
      },
      "artists": [
        {
          "external_urls": {
            "spotify": "https://open.spotify.com/artist/7Ln80lUS6He07XvHI8qqHH"
          },
          "href": "https://api.spotify.com/v1/artists/7Ln80lUS6He07XvHI8qqHH",
          "id": "7Ln80lUS6He07XvHI8qqHH",
          "name": "Arctic Monkeys",
          "type": "artist",
          "uri": "spotify:artist:7Ln80lUS6He07XvHI8qqHH"
        }
      ],
      "disc_number": 1,
      "duration_ms": 272394,
      "explicit": false,
      "external_ids": {
        "isrc": "GBCEL1300362"
      },
      "external_urls": {
        "spotify": "https://open.spotify.com/track/5FVd6KXrgO9B3JPmC8OPst"
      },
      "href": "https://api.spotify.com/v1/tracks/5FVd6KXrgO9B3JPmC8OPst",
      "id": "5FVd6KXrgO9B3JPmC8OPst",
      "is_local": false,
      "is_playable": true,
      "name": "Do I Wanna Know?",
      "popularity": 81,
      "preview_url": "https://p.scdn.co/mp3-preview/73e00a0a59c897b16d0fe30df43f7aeb2997079d?cid=null",
      "track_number": 1,
      "type": "track",
      "uri": "spotify:track:5FVd6KXrgO9B3JPmC8OPst"
    },
    {
      "album": {
        "album_type": "ALBUM",
        "artists": [
          {
            "external_urls": {
              "spotify": "https://open.spotify.com/artist/7Ln80lUS6He07XvHI8qqHH"
            },
            "href": "https://api.spotify.com/v1/artists/7Ln80lUS6He07XvHI8qqHH",
            "id": "7Ln80lUS6He07XvHI8qqHH",
            "name": "Arctic Monkeys",
            "type": "artist",
            "uri": "spotify:artist:7Ln80lUS6He07XvHI8qqHH"
          }
        ],
        "external_urls": {
          "spotify": "https://open.spotify.com/album/78bpIziExqiI9qztvNFlQu"
        },
        "href": "https://api.spotify.com/v1/albums/78bpIziExqiI9qztvNFlQu",
        "id": "78bpIziExqiI9qztvNFlQu",
        "images": [
          {
            "height": 640,
            "url": "https://i.scdn.co/image/f513ae2d610d9255913795d4bc28ca33c827b232",
            "width": 640
          },
          {
            "height": 300,
            "url": "https://i.scdn.co/image/f1e6688873c2bba1d729288e6b0f6d1137d9777b",
            "width": 300
          },
          {
            "height": 64,
            "url": "https://i.scdn.co/image/a16aa05eb1610d314c63afd580df9e92ce46cc50",
            "width": 64
          }
        ],
        "name": "AM",
        "release_date": "2013-09-09",
        "release_date_precision": "day",
        "type": "album",
        "uri": "spotify:album:78bpIziExqiI9qztvNFlQu"
      },
      "artists": [
        {
          "external_urls": {
            "spotify": "https://open.spotify.com/artist/7Ln80lUS6He07XvHI8qqHH"
          },
          "href": "https://api.spotify.com/v1/artists/7Ln80lUS6He07XvHI8qqHH",
          "id": "7Ln80lUS6He07XvHI8qqHH",
          "name": "Arctic Monkeys",
          "type": "artist",
          "uri": "spotify:artist:7Ln80lUS6He07XvHI8qqHH"
        }
      ],
      "disc_number": 1,
      "duration_ms": 161123,
      "explicit": false,
      "external_ids": {
        "isrc": "GBCEL1300370"
      },
      "external_urls": {
        "spotify": "https://open.spotify.com/track/086myS9r57YsLbJpU0TgK9"
      },
      "href": "https://api.spotify.com/v1/tracks/086myS9r57YsLbJpU0TgK9",
      "id": "086myS9r57YsLbJpU0TgK9",
      "is_local": false,
      "is_playable": true,
      "name": "Why'd You Only Call Me When You're High?",
      "popularity": 76,
      "preview_url": "https://p.scdn.co/mp3-preview/ac66e2c979d55dea341bfdd15e88783ece8a378d?cid=null",
      "track_number": 9,
      "type": "track",
      "uri": "spotify:track:086myS9r57YsLbJpU0TgK9"
    },
    {
      "album": {
        "album_type": "ALBUM",
        "artists": [
          {
            "external_urls": {
              "spotify": "https://open.spotify.com/artist/7Ln80lUS6He07XvHI8qqHH"
            },
            "href": "https://api.spotify.com/v1/artists/7Ln80lUS6He07XvHI8qqHH",
            "id": "7Ln80lUS6He07XvHI8qqHH",
            "name": "Arctic Monkeys",
            "type": "artist",
            "uri": "spotify:artist:7Ln80lUS6He07XvHI8qqHH"
          }
        ],
        "external_urls": {
          "spotify": "https://open.spotify.com/album/78bpIziExqiI9qztvNFlQu"
        },
        "href": "https://api.spotify.com/v1/albums/78bpIziExqiI9qztvNFlQu",
        "id": "78bpIziExqiI9qztvNFlQu",
        "images": [
          {
            "height": 640,
            "url": "https://i.scdn.co/image/f513ae2d610d9255913795d4bc28ca33c827b232",
            "width": 640
          },
          {
            "height": 300,
            "url": "https://i.scdn.co/image/f1e6688873c2bba1d729288e6b0f6d1137d9777b",
            "width": 300
          },
          {
            "height": 64,
            "url": "https://i.scdn.co/image/a16aa05eb1610d314c63afd580df9e92ce46cc50",
            "width": 64
          }
        ],
        "name": "AM",
        "release_date": "2013-09-09",
        "release_date_precision": "day",
        "type": "album",
        "uri": "spotify:album:78bpIziExqiI9qztvNFlQu"
      },
      "artists": [
        {
          "external_urls": {
            "spotify": "https://open.spotify.com/artist/7Ln80lUS6He07XvHI8qqHH"
          },
          "href": "https://api.spotify.com/v1/artists/7Ln80lUS6He07XvHI8qqHH",
          "id": "7Ln80lUS6He07XvHI8qqHH",
          "name": "Arctic Monkeys",
          "type": "artist",
          "uri": "spotify:artist:7Ln80lUS6He07XvHI8qqHH"
        }
      ],
      "disc_number": 1,
      "duration_ms": 201726,
      "explicit": false,
      "external_ids": {
        "isrc": "GBCEL1300363"
      },
      "external_urls": {
        "spotify": "https://open.spotify.com/track/2AT8iROs4FQueDv2c8q2KE"
      },
      "href": "https://api.spotify.com/v1/tracks/2AT8iROs4FQueDv2c8q2KE",
      "id": "2AT8iROs4FQueDv2c8q2KE",
      "is_local": false,
      "is_playable": true,
      "name": "R U Mine?",
      "popularity": 77,
      "preview_url": "https://p.scdn.co/mp3-preview/f96c611f0ec01e0300f19f9fd1fa16ba162682c9?cid=null",
      "track_number": 2,
      "type": "track",
      "uri": "spotify:track:2AT8iROs4FQueDv2c8q2KE"
    },
    {
      "album": {
        "album_type": "ALBUM",
        "artists": [
          {
            "external_urls": {
              "spotify": "https://open.spotify.com/artist/7Ln80lUS6He07XvHI8qqHH"
            },
            "href": "https://api.spotify.com/v1/artists/7Ln80lUS6He07XvHI8qqHH",
            "id": "7Ln80lUS6He07XvHI8qqHH",
            "name": "Arctic Monkeys",
            "type": "artist",
            "uri": "spotify:artist:7Ln80lUS6He07XvHI8qqHH"
          }
        ],
        "external_urls": {
          "spotify": "https://open.spotify.com/album/50Zz8CkIhATKUlQMbHO3k1"
        },
        "href": "https://api.spotify.com/v1/albums/50Zz8CkIhATKUlQMbHO3k1",
        "id": "50Zz8CkIhATKUlQMbHO3k1",
        "images": [
          {
            "height": 640,
            "url": "https://i.scdn.co/image/da1b4af018f2e77751c060a4f120528a9999f52d",
            "width": 640
          },
          {
            "height": 300,
            "url": "https://i.scdn.co/image/d4ce2c4054462a893d28b54d53281548673d1035",
            "width": 300
          },
          {
            "height": 64,
            "url": "https://i.scdn.co/image/7b1e2660eb630cb3b79a738233285ea01ab65300",
            "width": 64
          }
        ],
        "name": "Whatever People Say I Am, That's What I'm Not",
        "release_date": "2006-01-29",
        "release_date_precision": "day",
        "type": "album",
        "uri": "spotify:album:50Zz8CkIhATKUlQMbHO3k1"
      },
      "artists": [
        {
          "external_urls": {
            "spotify": "https://open.spotify.com/artist/7Ln80lUS6He07XvHI8qqHH"
          },
          "href": "https://api.spotify.com/v1/artists/7Ln80lUS6He07XvHI8qqHH",
          "id": "7Ln80lUS6He07XvHI8qqHH",
          "name": "Arctic Monkeys",
          "type": "artist",
          "uri": "spotify:artist:7Ln80lUS6He07XvHI8qqHH"
        }
      ],
      "disc_number": 1,
      "duration_ms": 202133,
      "explicit": false,
      "external_ids": {
        "isrc": "GBCEL0501190"
      },
      "external_urls": {
        "spotify": "https://open.spotify.com/track/2zzLRQ78kKfPTx8FJQCdC2"
      },
      "href": "https://api.spotify.com/v1/tracks/2zzLRQ78kKfPTx8FJQCdC2",
      "id": "2zzLRQ78kKfPTx8FJQCdC2",
      "is_local": false,
      "is_playable": true,
      "name": "When The Sun Goes Down",
      "popularity": 72,
      "preview_url": "https://p.scdn.co/mp3-preview/a94924e4d62c59fe7f1b35b2cb219b490518449d?cid=null",
      "track_number": 11,
      "type": "track",
      "uri": "spotify:track:2zzLRQ78kKfPTx8FJQCdC2"
    },
    {
      "album": {
        "album_type": "SINGLE",
        "artists": [
          {
            "external_urls": {
              "spotify": "https://open.spotify.com/artist/2ZRQcIgzPCVaT9XKhXZIzh"
            },
            "href": "https://api.spotify.com/v1/artists/2ZRQcIgzPCVaT9XKhXZIzh",
            "id": "2ZRQcIgzPCVaT9XKhXZIzh",
            "name": "Gryffin",
            "type": "artist",
            "uri": "spotify:artist:2ZRQcIgzPCVaT9XKhXZIzh"
          },
          {
            "external_urls": {
              "spotify": "https://open.spotify.com/artist/45eNHdiiabvmbp4erw26rg"
            },
            "href": "https://api.spotify.com/v1/artists/45eNHdiiabvmbp4erw26rg",
            "id": "45eNHdiiabvmbp4erw26rg",
            "name": "Illenium",
            "type": "artist",
            "uri": "spotify:artist:45eNHdiiabvmbp4erw26rg"
          }
        ],
        "external_urls": {
          "spotify": "https://open.spotify.com/album/1fP5UnRB0WNWNHSZRHsRCR"
        },
        "href": "https://api.spotify.com/v1/albums/1fP5UnRB0WNWNHSZRHsRCR",
        "id": "1fP5UnRB0WNWNHSZRHsRCR",
        "images": [
          {
            "height": 640,
            "url": "https://i.scdn.co/image/b4aff8c3b96be6fa836e2fbc7ba6380a5c532184",
            "width": 640
          },
          {
            "height": 300,
            "url": "https://i.scdn.co/image/2c44193970cf6d455dbc44fba753630108016f70",
            "width": 300
          },
          {
            "height": 64,
            "url": "https://i.scdn.co/image/68ecd3929d26e2afcd004e9f8a4160cb626ccdab",
            "width": 64
          }
        ],
        "name": "Feel Good (feat. Daya)",
        "release_date": "2017-03-03",
        "release_date_precision": "day",
        "type": "album",
        "uri": "spotify:album:1fP5UnRB0WNWNHSZRHsRCR"
      },
      "artists": [
        {
          "external_urls": {
            "spotify": "https://open.spotify.com/artist/2ZRQcIgzPCVaT9XKhXZIzh"
          },
          "href": "https://api.spotify.com/v1/artists/2ZRQcIgzPCVaT9XKhXZIzh",
          "id": "2ZRQcIgzPCVaT9XKhXZIzh",
          "name": "Gryffin",
          "type": "artist",
          "uri": "spotify:artist:2ZRQcIgzPCVaT9XKhXZIzh"
        },
        {
          "external_urls": {
            "spotify": "https://open.spotify.com/artist/45eNHdiiabvmbp4erw26rg"
          },
          "href": "https://api.spotify.com/v1/artists/45eNHdiiabvmbp4erw26rg",
          "id": "45eNHdiiabvmbp4erw26rg",
          "name": "Illenium",
          "type": "artist",
          "uri": "spotify:artist:45eNHdiiabvmbp4erw26rg"
        },
        {
          "external_urls": {
            "spotify": "https://open.spotify.com/artist/6Dd3NScHWwnW6obMFbl1BH"
          },
          "href": "https://api.spotify.com/v1/artists/6Dd3NScHWwnW6obMFbl1BH",
          "id": "6Dd3NScHWwnW6obMFbl1BH",
          "name": "Daya",
          "type": "artist",
          "uri": "spotify:artist:6Dd3NScHWwnW6obMFbl1BH"
        }
      ],
      "disc_number": 1,
      "duration_ms": 248156,
      "explicit": false,
      "external_ids": {
        "isrc": "USUM71701083"
      },
      "external_urls": {
        "spotify": "https://open.spotify.com/track/0Ev562zA4pmUsBqjxsxxdx"
      },
      "href": "https://api.spotify.com/v1/tracks/0Ev562zA4pmUsBqjxsxxdx",
      "id": "0Ev562zA4pmUsBqjxsxxdx",
      "is_local": false,
      "is_playable": true,
      "linked_from": {
        "external_urls": {
          "spotify": "https://open.spotify.com/track/0NyOeqzqjVM9j7IuWp2oJ6"
        },
        "href": "https://api.spotify.com/v1/tracks/0NyOeqzqjVM9j7IuWp2oJ6",
        "id": "0NyOeqzqjVM9j7IuWp2oJ6",
        "type": "track",
        "uri": "spotify:track:0NyOeqzqjVM9j7IuWp2oJ6"
      },
      "name": "Feel Good (feat. Daya)",
      "popularity": 71,
      "preview_url": null,
      "track_number": 1,
      "type": "track",
      "uri": "spotify:track:0Ev562zA4pmUsBqjxsxxdx"
    }
  ],
  "total": 50,
  "limit": 10,
  "offset": 5,
  "previous": null,
  "href": "https://api.spotify.com/v1/me/top/tracks?limit=10&offset=5",
  "next": "https://api.spotify.com/v1/me/top/tracks?limit=10&offset=15"
}