{
  "albums": {
    "href": "https://api.spotify.com/v1/search?query=The+Heist&type=album&market=US&offset=5&limit=10",
    "items": [
      {
        "album_type": "single",
        "artists": [
          {
            "external_urls": {
              "spotify": "https://open.spotify.com/artist/2trRk6Zle6Z3pzZu6DytEI"
            },
            "href": "https://api.spotify.com/v1/artists/2trRk6Zle6Z3pzZu6DytEI",
            "id": "2trRk6Zle6Z3pzZu6DytEI",
            "name": "I Am Abomination",
            "type": "artist",
            "uri": "spotify:artist:2trRk6Zle6Z3pzZu6DytEI"
          }
        ],
        "external_urls": {
          "spotify": "https://open.spotify.com/album/0Wey66RP2qKcJlzgDGuyGS"
        },
        "href": "https://api.spotify.com/v1/albums/0Wey66RP2qKcJlzgDGuyGS",
        "id": "0Wey66RP2qKcJlzgDGuyGS",
        "images": [
          {
            "height": 640,
            "url": "https://i.scdn.co/image/977b2c078e8a7302e073a45ab7b3d84902a742fd",
            "width": 640
          },
          {
            "height": 300,
            "url": "https://i.scdn.co/image/2f2fe2a582d726213000b8fc0656569b152b6a57",
            "width": 300
          },
          {
            "height": 64,
            "url": "https://i.scdn.co/image/07e74f09f76c6c86b4f9a75cab8506dc0d74c79c",
            "width": 64
          }
        ],
        "name": "Passion of the Heist - EP",
        "release_date": "2011-07-19",
        "release_date_precision": "day",
        "total_tracks": 6,
        "type": "album",
        "uri": "spotify:album:0Wey66RP2qKcJlzgDGuyGS"
      },
      {
        "album_type": "album",
        "artists": [
          {
            "external_urls": {
              "spotify": "https://open.spotify.com/artist/130JkW1WwUswzofZ2paOvs"
            },
            "href": "https://api.spotify.com/v1/artists/130JkW1WwUswzofZ2paOvs",
            "id": "130JkW1WwUswzofZ2paOvs",
            "name": "La The Darkman",
            "type": "artist",
            "uri": "spotify:artist:130JkW1WwUswzofZ2paOvs"
          }
        ],
        "external_urls": {
          "spotify": "https://open.spotify.com/album/4dGjEhDFozULLp4YZ3dJko"
        },
        "href": "https://api.spotify.com/v1/albums/4dGjEhDFozULLp4YZ3dJko",
        "id": "4dGjEhDFozULLp4YZ3dJko",
        "images": [
          {
            "height": 640,
            "url": "https://i.scdn.co/image/93d74325ba0edc83d93ad8aa3c7ad903729f2cb8",
            "width": 640
          },
          {
            "height": 300,
            "url": "https://i.scdn.co/image/87199b7d4cb652199b3d8d2bfbd3772fa71168d1",
            "width": 300
          },
          {
            "height": 64,
            "url": "https://i.scdn.co/image/503703b7b18a082ea258e3e4f167597d73c754c9",
            "width": 64
          }
        ],
        "name": "Heist of the Century",
        "release_date": "1998-07-28",
        "release_date_precision": "day",
        "total_tracks": 18,
        "type": "album",
        "uri": "spotify:album:4dGjEhDFozULLp4YZ3dJko"
      },
      {
        "album_type": "single",
        "artists": [
          {
            "external_urls": {
              "spotify": "https://open.spotify.com/artist/5ZMkqnrO73lKkmR6eTBGQU"
            },
            "href": "https://api.spotify.com/v1/artists/5ZMkqnrO73lKkmR6eTBGQU",
            "id": "5ZMkqnrO73lKkmR6eTBGQU",
            "name": "Lil Noodle",
            "type": "artist",
            "uri": "spotify:artist:5ZMkqnrO73lKkmR6eTBGQU"
          }
        ],
        "external_urls": {
          "spotify": "https://open.spotify.com/album/4RgAjSSiPHjm39lj7kQUyV"
        },
        "href": "https://api.spotify.com/v1/albums/4RgAjSSiPHjm39lj7kQUyV",
        "id": "4RgAjSSiPHjm39lj7kQUyV",
        "images": [
          {
            "height": 640,
            "url": "https://i.scdn.co/image/98ea7787173189ecad53bfc11865ac51fb37335e",
            "width": 640
          },
          {
            "height": 300,
            "url": "https://i.scdn.co/image/63e4ca989a886f3fda1b1b3c40f764f18bfcc28b",
            "width": 300
          },
          {
            "height": 64,
            "url": "https://i.scdn.co/image/79227bb5b50220a96f03143ebaec772bf1bff98d",
            "width": 64
          }
        ],
        "name": "The Heist",
        "release_date": "2018-02-20",
        "release_date_precision": "day",
        "total_tracks": 1,
        "type": "album",
        "uri": "spotify:album:4RgAjSSiPHjm39lj7kQUyV"
      },
      {
        "album_type": "single",
        "artists": [
          {
            "external_urls": {
              "spotify": "https://open.spotify.com/artist/7kIxfmjYGQui2LCqXGLfWA"
            },
            "href": "https://api.spotify.com/v1/artists/7kIxfmjYGQui2LCqXGLfWA",
            "id": "7kIxfmjYGQui2LCqXGLfWA",
            "name": "Bandlez",
            "type": "artist",
            "uri": "spotify:artist:7kIxfmjYGQui2LCqXGLfWA"
          }
        ],
        "external_urls": {
          "spotify": "https://open.spotify.com/album/6tFITscgxTsUtDspnDgpAJ"
        },
        "href": "https://api.spotify.com/v1/albums/6tFITscgxTsUtDspnDgpAJ",
        "id": "6tFITscgxTsUtDspnDgpAJ",
        "images": [
          {
            "height": 640,
            "url": "https://i.scdn.co/image/f199eed6dfa74ed303c08de23da4059a7d1714a3",
            "width": 640
          },
          {
            "height": 300,
            "url": "https://i.scdn.co/image/23999d3d9edfe28552d3bb41239a9469791828f4",
            "width": 300
          },
          {
            "height": 64,
            "url": "https://i.scdn.co/image/5cfa42f4d9cdcae8bfa257fff04fcdfff52b6649",
            "width": 64
          }
        ],
        "name": "The Heist",
        "release_date": "2017-08-04",
        "release_date_precision": "day",
        "total_tracks": 5,
        "type": "album",
        "uri": "spotify:album:6tFITscgxTsUtDspnDgpAJ"
      },
      {
        "album_type": "single",
        "artists": [
          {
            "external_urls": {
              "spotify": "https://open.spotify.com/artist/4oLZx5FplbgfM8DEe9U8LB"
            },
            "href": "https://api.spotify.com/v1/artists/4oLZx5FplbgfM8DEe9U8LB",
            "id": "4oLZx5FplbgfM8DEe9U8LB",
            "name": "Camp Lo",
            "type": "artist",
            "uri": "spotify:artist:4oLZx5FplbgfM8DEe9U8LB"
          }
        ],
        "external_urls": {
          "spotify": "https://open.spotify.com/album/0i0RcIv9vE2Tc5vqsLPATi"
        },
        "href": "https://api.spotify.com/v1/albums/0i0RcIv9vE2Tc5vqsLPATi",
        "id": "0i0RcIv9vE2Tc5vqsLPATi",
        "images": [
          {
            "height": 640,
            "url": "https://i.scdn.co/image/3699fea5a9ad6671a0d546daf795dd5dfa2d6ac8",
            "width": 640
          },
          {
            "height": 300,
            "url": "https://i.scdn.co/image/fd6eacd3acf6bb69b85edc310d865824396686ae",
            "width": 300
          },
          {
            "height": 64,
            "url": "https://i.scdn.co/image/5d9a44cf13edea7590f87bcf88c8a92f53c72174",
            "width": 64
          }
        ],
        "name": "World Heist - Episode #1 - On the Way to Xenobia's",
        "release_date": "2016-11-12",
        "release_date_precision": "day",
        "total_tracks": 1,
        "type": "album",
        "uri": "spotify:album:0i0RcIv9vE2Tc5vqsLPATi"
      },
      {
        "album_type": "single",
        "artists": [
          {
            "external_urls": {
              "spotify": "https://open.spotify.com/artist/6pbMPfkngqZJAUa7pG4oam"
            },
            "href": "https://api.spotify.com/v1/artists/6pbMPfkngqZJAUa7pG4oam",
            "id": "6pbMPfkngqZJAUa7pG4oam",
            "name": "The Heist",
            "type": "artist",
            "uri": "spotify:artist:6pbMPfkngqZJAUa7pG4oam"
          }
        ],
        "external_urls": {
          "spotify": "https://open.spotify.com/album/01ee10iGE02diMXe7GWxSO"
        },
        "href": "https://api.spotify.com/v1/albums/01ee10iGE02diMXe7GWxSO",
        "id": "01ee10iGE02diMXe7GWxSO",
        "images": [
          {
            "height": 640,
            "url": "https://i.scdn.co/image/f0aac7c8a2e91ab7306ea440eb65248a7a2818d6",
            "width": 640
          },
          {
            "height": 300,
            "url": "https://i.scdn.co/image/d03de4369ee22e1172b7afaf2ea663d0ae7052eb",
            "width": 300
          },
          {
            "height": 64,
            "url": "https://i.scdn.co/image/61e1e29fad6aff943fcfcbcc18cb29d73831ab18",
            "width": 64
          }
        ],
        "name": "The Heist",
        "release_date": "2017-05-12",
        "release_date_precision": "day",
        "total_tracks": 6,
        "type": "album",
        "uri": "spotify:album:01ee10iGE02diMXe7GWxSO"
      },
      {
        "album_type": "single",
        "artists": [
          {
            "external_urls": {
              "spotify": "https://open.spotify.com/artist/1CgGmzXzwH2j3JL8OdLnBi"
            },
            "href": "https://api.spotify.com/v1/artists/1CgGmzXzwH2j3JL8OdLnBi",
            "id": "1CgGmzXzwH2j3JL8OdLnBi",
            "name": "Atik",
            "type": "artist",
            "uri": "spotify:artist:1CgGmzXzwH2j3JL8OdLnBi"
          }
        ],
        "external_urls": {
          "spotify": "https://open.spotify.com/album/2oG6lwkuC38unK8ecagYbg"
        },
        "href": "https://api.spotify.com/v1/albums/2oG6lwkuC38unK8ecagYbg",
        "id": "2oG6lwkuC38unK8ecagYbg",
        "images": [
          {
            "height": 640,
            "url": "https://i.scdn.co/image/3c9ce1688e5d3c865796869a990efbab2de958b4",
            "width": 640
          },
          {
            "height": 300,
            "url": "https://i.scdn.co/image/9cca5b1f1d474b3e19cedaa98d7ccaf1b5557a09",
            "width": 300
          },
          {
            "height": 64,
            "url": "https://i.scdn.co/image/8d7765acd9efa2fecccb2321ae92cbf0e8a4d72c",
            "width": 64
          }
        ],
        "name": "The Heist",
        "release_date": "2018-09-11",
        "release_date_precision": "day",
        "total_tracks": 1,
        "type": "album",
        "uri": "spotify:album:2oG6lwkuC38unK8ecagYbg"
      },
      {
        "album_type": "single",
        "artists": [
          {
            "external_urls": {
              "spotify": "https://open.spotify.com/artist/6pbMPfkngqZJAUa7pG4oam"
            },
            "href": "https://api.spotify.com/v1/artists/6pbMPfkngqZJAUa7pG4oam",
            "id": "6pbMPfkngqZJAUa7pG4oam",
            "name": "The Heist",
            "type": "artist",
            "uri": "spotify:artist:6pbMPfkngqZJAUa7pG4oam"
          }
        ],
        "external_urls": {
          "spotify": "https://open.spotify.com/album/1wxSbSKtoxuCy8B0UHEKKb"
        },
        "href": "https://api.spotify.com/v1/albums/1wxSbSKtoxuCy8B0UHEKKb",
        "id": "1wxSbSKtoxuCy8B0UHEKKb",
        "images": [
          {
            "height": 640,
            "url": "https://i.scdn.co/image/7aff0d1d2d25be553a6e42525b3bf7b6e88b6834",
            "width": 640
          },
          {
            "height": 300,
            "url": "https://i.scdn.co/image/239bd353f64904118165a043a89347103ec08e3c",
            "width": 300
          },
          {
            "height": 64,
            "url": "https://i.scdn.co/image/025a57ed2e442237afb1071f6ed44ddd84123533",
            "width": 64
          }
        ],
        "name": "All I Want",
        "release_date": "2016-05-13",
        "release_date_precision": "day",
        "total_tracks": 1,
        "type": "album",
        "uri": "spotify:album:1wxSbSKtoxuCy8B0UHEKKb"
      },
      {
        "album_type": "album",
        "artists": [
          {
            "external_urls": {
              "spotify": "https://open.spotify.com/artist/6dU7gPN2BhEPfO5QHLt7es"
            },
            "href": "https://api.spotify.com/v1/artists/6dU7gPN2BhEPfO5QHLt7es",
            "id": "6dU7gPN2BhEPfO5QHLt7es",
            "name": "Lorne Balfe",
            "type": "artist",
            "uri": "spotify:artist:6dU7gPN2BhEPfO5QHLt7es"
          }
        ],
        "external_urls": {
          "spotify": "https://open.spotify.com/album/3B6a0zMfsyYRmlYQvj68ra"
        },
        "href": "https://api.spotify.com/v1/albums/3B6a0zMfsyYRmlYQvj68ra",
        "id": "3B6a0zMfsyYRmlYQvj68ra",
        "images": [
          {
            "height": 640,
            "url": "https://i.scdn.co/image/20ca42cbf94fc4bea7b83c3d20db4a1e5872ef13",
            "width": 640
          },
          {
            "height": 300,
            "url": "https://i.scdn.co/image/a35f549ddec9564c28492b90b64aaa98cd3d3c8d",
            "width": 300
          },
          {
            "height": 64,
            "url": "https://i.scdn.co/image/33f19b0f41724665ee4a607d8a470560ef646693",
            "width": 64
          }
        ],
        "name": "The Hurricane Heist (Original Motion Picture Soundtrack)",
        "release_date": "2018-03-09",
        "release_date_precision": "day",
        "total_tracks": 14,
        "type": "album",
        "uri": "spotify:album:3B6a0zMfsyYRmlYQvj68ra"
      },
      {
        "album_type": "single",
        "artists": [
          {
            "external_urls": {
              "spotify": "https://open.spotify.com/artist/4ydNc0O1ChoyHnTxH6yMXX"
            },
            "href": "https://api.spotify.com/v1/artists/4ydNc0O1ChoyHnTxH6yMXX",
            "id": "4ydNc0O1ChoyHnTxH6yMXX",
            "name": "Rim",
            "type": "artist",
            "uri": "spotify:artist:4ydNc0O1ChoyHnTxH6yMXX"
          }
        ],
        "external_urls": {
          "spotify": "https://open.spotify.com/album/3fCc1ELWIxT98JKIouWebE"
        },
        "href": "https://api.spotify.com/v1/albums/3fCc1ELWIxT98JKIouWebE",
        "id": "3fCc1ELWIxT98JKIouWebE",
        "images": [
          {
            "height": 640,
            "url": "https://i.scdn.co/image/e9a1aa0eb9c99f058bf7e6f8e48b7272877ef57f",
            "width": 640
          },
          {
            "height": 300,
            "url": "https://i.scdn.co/image/a265bb8aae56f5a8a7131d49ce88c7a43086217b",
            "width": 300
          },
          {
            "height": 64,
            "url": "https://i.scdn.co/image/ba473e181b7aac747d72a6d8ba455a63a6e2a875",
            "width": 64
          }
        ],
        "name": "The Heist",
        "release_date": "2018-09-21",
        "release_date_precision": "day",
        "total_tracks": 2,
        "type": "album",
        "uri": "spotify:album:3fCc1ELWIxT98JKIouWebE"
      }
    ],
    "limit": 10,
    "next": "https://api.spotify.com/v1/search?query=The+Heist&type=album&market=US&offset=15&limit=10",
    "offset": 5,
    "previous": "https://api.spotify.com/v1/search?query=The+Heist&type=album&market=US&offset=0&limit=10",
    "total": 123
  }
}