{
  "artists": {
    "href": "https://api.spotify.com/v1/search?query=Muse&type=artist&market=US&offset=5&limit=10",
    "items": [
      {
        "external_urls": {
          "spotify": "https://open.spotify.com/artist/0EcCExwuVReDp8Y86sLXUo"
        },
        "followers": {
          "href": null,
          "total": 52
        },
        "genres": [],
        "href": "https://api.spotify.com/v1/artists/0EcCExwuVReDp8Y86sLXUo",
        "id": "0EcCExwuVReDp8Y86sLXUo",
        "images": [
          {
            "height": 640,
            "url": "https://i.scdn.co/image/fef4944016086c9f0afb7ee943ab0a0d746b30e7",
            "width": 640
          },
          {
            "height": 320,
            "url": "https://i.scdn.co/image/39d74c5be6e3e929bdca315b2a4c60fc6c581487",
            "width": 320
          },
          {
            "height": 160,
            "url": "https://i.scdn.co/image/ae04510bb2b9493375de9e3748651e4574de4084",
            "width": 160
          }
        ],
        "name": "Charlee Muse",
        "popularity": 25,
        "type": "artist",
        "uri": "spotify:artist:0EcCExwuVReDp8Y86sLXUo"
      },
      {
        "external_urls": {
          "spotify": "https://open.spotify.com/artist/15qpUkIDVVWsb60MTzCVsJ"
        },
        "followers": {
          "href": null,
          "total": 127
        },
        "genres": [],
        "href": "https://api.spotify.com/v1/artists/15qpUkIDVVWsb60MTzCVsJ",
        "id": "15qpUkIDVVWsb60MTzCVsJ",
        "images": [
          {
            "height": 640,
            "url": "https://i.scdn.co/image/13245132dd3751e58db6d3a94bc93aebb496a6e8",
            "width": 640
          },
          {
            "height": 300,
            "url": "https://i.scdn.co/image/b75915f7e064a2645343a5ee29c37726d0defe3e",
            "width": 300
          },
          {
            "height": 64,
            "url": "https://i.scdn.co/image/64803e843e21fd189cd618ba8dcb3dba11c52811",
            "width": 64
          }
        ],
        "name": "Clip Muse",
        "popularity": 23,
        "type": "artist",
        "uri": "spotify:artist:15qpUkIDVVWsb60MTzCVsJ"
      },
      {
        "external_urls": {
          "spotify": "https://open.spotify.com/artist/3uIGREwbP57eNOtcol8yrC"
        },
        "followers": {
          "href": null,
          "total": 334
        },
        "genres": [
          "harp",
          "string folk"
        ],
        "href": "https://api.spotify.com/v1/artists/3uIGREwbP57eNOtcol8yrC",
        "id": "3uIGREwbP57eNOtcol8yrC",
        "images": [],
        "name": "Celtic Muse",
        "popularity": 16,
        "type": "artist",
        "uri": "spotify:artist:3uIGREwbP57eNOtcol8yrC"
      },
      {
        "external_urls": {
          "spotify": "https://open.spotify.com/artist/7dwv5d4pNWa18YFMiXZiFi"
        },
        "followers": {
          "href": null,
          "total": 124
        },
        "genres": [],
        "href": "https://api.spotify.com/v1/artists/7dwv5d4pNWa18YFMiXZiFi",
        "id": "7dwv5d4pNWa18YFMiXZiFi",
        "images": [
          {
            "height": 640,
            "url": "https://i.scdn.co/image/2094e57ac2d673414f5a733b1db969fcb402567d",
            "width": 640
          },
          {
            "height": 320,
            "url": "https://i.scdn.co/image/56849064097581066c7d2051e5b5a464dad08f52",
            "width": 320
          },
          {
            "height": 160,
            "url": "https://i.scdn.co/image/0767244f8c471f4b8f2ac1e7552ce15c6a3d2d8c",
            "width": 160
          }
        ],
        "name": "The Muse Maker",
        "popularity": 15,
        "type": "artist",
        "uri": "spotify:artist:7dwv5d4pNWa18YFMiXZiFi"
      },
      {
        "external_urls": {
          "spotify": "https://open.spotify.com/artist/1zFNYw5kgA7UEKWqNHf1Et"
        },
        "followers": {
          "href": null,
          "total": 1755
        },
        "genres": [
          "electropop"
        ],
        "href": "https://api.spotify.com/v1/artists/1zFNYw5kgA7UEKWqNHf1Et",
        "id": "1zFNYw5kgA7UEKWqNHf1Et",
        "images": [
          {
            "height": 640,
            "url": "https://i.scdn.co/image/37b8c747761d4e769f50cafe0cfac5e5699d11c4",
            "width": 640
          },
          {
            "height": 300,
            "url": "https://i.scdn.co/image/1dbe9563251b3a2411a08e116214ecdc72ea5d36",
            "width": 300
          },
          {
            "height": 64,
            "url": "https://i.scdn.co/image/019776540e398dae278322f9f030f36afb0614d2",
            "width": 64
          }
        ],
        "name": "Dangerous Muse",
        "popularity": 13,
        "type": "artist",
        "uri": "spotify:artist:1zFNYw5kgA7UEKWqNHf1Et"
      },
      {
        "external_urls": {
          "spotify": "https://open.spotify.com/artist/2fG1yJINYy4n12TEyenffE"
        },
        "followers": {
          "href": null,
          "total": 5
        },
        "genres": [],
        "href": "https://api.spotify.com/v1/artists/2fG1yJINYy4n12TEyenffE",
        "id": "2fG1yJINYy4n12TEyenffE",
        "images": [],
        "name": "Kandy Muse",
        "popularity": 12,
        "type": "artist",
        "uri": "spotify:artist:2fG1yJINYy4n12TEyenffE"
      },
      {
        "external_urls": {
          "spotify": "https://open.spotify.com/artist/4WUHZVB8wkTnWXQGbF4SCz"
        },
        "followers": {
          "href": null,
          "total": 221
        },
        "genres": [],
        "href": "https://api.spotify.com/v1/artists/4WUHZVB8wkTnWXQGbF4SCz",
        "id": "4WUHZVB8wkTnWXQGbF4SCz",
        "images": [
          {
            "height": 640,
            "url": "https://i.scdn.co/image/964cdc5b9760e360749c3f716997fa50460ddef0",
            "width": 640
          },
          {
            "height": 320,
            "url": "https://i.scdn.co/image/5f5dfc727bc263a8e79f8fb9b2b4d63217a994be",
            "width": 320
          },
          {
            "height": 160,
            "url": "https://i.scdn.co/image/8a18bfaf687c7bd34458ea8410c3c7fffbd7796c",
            "width": 160
          }
        ],
        "name": "Matt Muse",
        "popularity": 8,
        "type": "artist",
        "uri": "spotify:artist:4WUHZVB8wkTnWXQGbF4SCz"
      },
      {
        "external_urls": {
          "spotify": "https://open.spotify.com/artist/3i2BIU5Mp9c3Rsit2WCfbx"
        },
        "followers": {
          "href": null,
          "total": 9
        },
        "genres": [],
        "href": "https://api.spotify.com/v1/artists/3i2BIU5Mp9c3Rsit2WCfbx",
        "id": "3i2BIU5Mp9c3Rsit2WCfbx",
        "images": [],
        "name": "Muse",
        "popularity": 10,
        "type": "artist",
        "uri": "spotify:artist:3i2BIU5Mp9c3Rsit2WCfbx"
      },
      {
        "external_urls": {
          "spotify": "https://open.spotify.com/artist/0Ymv6F8LDp55r7F6dEDXB5"
        },
        "followers": {
          "href": null,
          "total": 0
        },
        "genres": [],
        "href": "https://api.spotify.com/v1/artists/0Ymv6F8LDp55r7F6dEDXB5",
        "id": "0Ymv6F8LDp55r7F6dEDXB5",
        "images": [],
        "name": "Queen Muse",
        "popularity": 3,
        "type": "artist",
        "uri": "spotify:artist:0Ymv6F8LDp55r7F6dEDXB5"
      },
      {
        "external_urls": {
          "spotify": "https://open.spotify.com/artist/1LZX9fzyLrGXkwn3KYX6YW"
        },
        "followers": {
          "href": null,
          "total": 66
        },
        "genres": [],
        "href": "https://api.spotify.com/v1/artists/1LZX9fzyLrGXkwn3KYX6YW",
        "id": "1LZX9fzyLrGXkwn3KYX6YW",
        "images": [],
        "name": "Terrence Muse",
        "popularity": 4,
        "type": "artist",
        "uri": "spotify:artist:1LZX9fzyLrGXkwn3KYX6YW"
      }
    ],
    "limit": 10,
    "next": "https://api.spotify.com/v1/search?query=Muse&type=artist&market=US&offset=15&limit=10",
    "offset": 5,
    "previous": "https://api.spotify.com/v1/search?query=Muse&type=artist&market=US&offset=0&limit=10",
    "total": 204
  }
}