{
  "albums": {
    "href": "https://api.spotify.com/v1/browse/new-releases?country=SE&offset=5&limit=10",
    "items": [
      {
        "album_type": "single",
        "artists": [
          {
            "external_urls": {
              "spotify": "https://open.spotify.com/artist/4O15NlyKLIASxsJ0PrXPfz"
            },
            "href": "https://api.spotify.com/v1/artists/4O15NlyKLIASxsJ0PrXPfz",
            "id": "4O15NlyKLIASxsJ0PrXPfz",
            "name": "Lil Uzi Vert",
            "type": "artist",
            "uri": "spotify:artist:4O15NlyKLIASxsJ0PrXPfz"
          }
        ],
        "available_markets": [
          "AD",
          "AR",
          "AT",
          "AU",
          "BE",
          "BG",
          "BO",
          "BR",
          "CA",
          "CH",
          "CL",
          "CO",
          "CR",
          "CY",
          "CZ",
          "DE",
          "DK",
          "DO",
          "EC",
          "EE",
          "ES",
          "FI",
          "FR",
          "GB",
          "GR",
          "GT",
          "HK",
          "HN",
          "HU",
          "ID",
          "IE",
          "IL",
          "IS",
          "IT",
          "JP",
          "LI",
          "LT",
          "LU",
          "LV",
          "MC",
          "MT",
          "MX",
          "MY",
          "NI",
          "NL",
          "NO",
          "NZ",
          "PA",
          "PE",
          "PH",
          "PL",
          "PT",
          "PY",
          "RO",
          "SE",
          "SG",
          "SK",
          "SV",
          "TH",
          "TR",
          "TW",
          "US",
          "UY",
          "VN",
          "ZA"
        ],
        "external_urls": {
          "spotify": "https://open.spotify.com/album/64eE6FnNj7UJ9LEkN4EbvS"
        },
        "href": "https://api.spotify.com/v1/albums/64eE6FnNj7UJ9LEkN4EbvS",
        "id": "64eE6FnNj7UJ9LEkN4EbvS",
        "images": [
          {
            "height": 640,
            "url": "https://i.scdn.co/image/511dc370db10d4ded4bde9742a98b80051fa33c1",
            "width": 640
          },
          {
            "height": 300,
            "url": "https://i.scdn.co/image/6cd03e0a212add192512b2b728ec1daba7b08b70",
            "width": 300
          },
          {
            "height": 64,
            "url": "https://i.scdn.co/image/4a7afda40f302ed3f49836c07f3ab65ccf74b74d",
            "width": 64
          }
        ],
        "name": "New Patek",
        "release_date": "2018-09-18",
        "release_date_precision": "day",
        "total_tracks": 1,
        "type": "album",
        "uri": "spotify:album:64eE6FnNj7UJ9LEkN4EbvS"
      },
      {
        "album_type": "single",
        "artists": [
          {
            "external_urls": {
              "spotify": "https://open.spotify.com/artist/0p4nmQO2msCgU4IF37Wi3j"
            },
            "href": "https://api.spotify.com/v1/artists/0p4nmQO2msCgU4IF37Wi3j",
            "id": "0p4nmQO2msCgU4IF37Wi3j",
            "name": "Avril Lavigne",
            "type": "artist",
            "uri": "spotify:artist:0p4nmQO2msCgU4IF37Wi3j"
          }
        ],
        "available_markets": [
          "AD",
          "AR",
          "AT",
          "AU",
          "BE",
          "BG",
          "BO",
          "BR",
          "CA",
          "CH",
          "CL",
          "CO",
          "CR",
          "CY",
          "CZ",
          "DE",
          "DK",
          "DO",
          "EC",
          "EE",
          "ES",
          "FI",
          "FR",
          "GB",
          "GR",
          "GT",
          "HK",
          "HN",
          "HU",
          "ID",
          "IE",
          "IL",
          "IS",
          "IT",
          "JP",
          "LI",
          "LT",
          "LU",
          "LV",
          "MC",
          "MT",
          "MX",
          "MY",
          "NI",
          "NL",
          "NO",
          "NZ",
          "PA",
          "PE",
          "PH",
          "PL",
          "PT",
          "PY",
          "RO",
          "SE",
          "SG",
          "SK",
          "SV",
          "TH",
          "TR",
          "TW",
          "US",
          "UY",
          "VN",
          "ZA"
        ],
        "external_urls": {
          "spotify": "https://open.spotify.com/album/6uQufJrxAdQNH2QlnJMEgi"
        },
        "href": "https://api.spotify.com/v1/albums/6uQufJrxAdQNH2QlnJMEgi",
        "id": "6uQufJrxAdQNH2QlnJMEgi",
        "images": [
          {
            "height": 640,
            "url": "https://i.scdn.co/image/d73555a3dcb3fa9549a64e01b0237ee679ed0a52",
            "width": 640
          },
          {
            "height": 300,
            "url": "https://i.scdn.co/image/3acbf89d8f360851d039f9ec2e989cc88370310e",
            "width": 300
          },
          {
            "height": 64,
            "url": "https://i.scdn.co/image/47b70ade6ac1ca10950a1a712e7daaacfdcd9cdd",
            "width": 64
          }
        ],
        "name": "Head Above Water",
        "release_date": "2018-09-19",
        "release_date_precision": "day",
        "total_tracks": 1,
        "type": "album",
        "uri": "spotify:album:6uQufJrxAdQNH2QlnJMEgi"
      },
      {
        "album_type": "single",
        "artists": [
          {
            "external_urls": {
              "spotify": "https://open.spotify.com/artist/6tt0iYnpHERj05WATWRiom"
            },
            "href": "https://api.spotify.com/v1/artists/6tt0iYnpHERj05WATWRiom",
            "id": "6tt0iYnpHERj05WATWRiom",
            "name": "Bantu",
            "type": "artist",
            "uri": "spotify:artist:6tt0iYnpHERj05WATWRiom"
          },
          {
            "external_urls": {
              "spotify": "https://open.spotify.com/artist/1HBjj22wzbscIZ9sEb5dyf"
            },
            "href": "https://api.spotify.com/v1/artists/1HBjj22wzbscIZ9sEb5dyf",
            "id": "1HBjj22wzbscIZ9sEb5dyf",
            "name": "Jonas Blue",
            "type": "artist",
            "uri": "spotify:artist:1HBjj22wzbscIZ9sEb5dyf"
          },
          {
            "external_urls": {
              "spotify": "https://open.spotify.com/artist/1zC5fndU0aEvINmBra2M3T"
            },
            "href": "https://api.spotify.com/v1/artists/1zC5fndU0aEvINmBra2M3T",
            "id": "1zC5fndU0aEvINmBra2M3T",
            "name": "Shungudzo",
            "type": "artist",
            "uri": "spotify:artist:1zC5fndU0aEvINmBra2M3T"
          }
        ],
        "available_markets": [
          "AD",
          "AR",
          "AT",
          "AU",
          "BE",
          "BG",
          "BO",
          "BR",
          "CA",
          "CH",
          "CL",
          "CO",
          "CR",
          "CY",
          "CZ",
          "DE",
          "DK",
          "DO",
          "EC",
          "EE",
          "ES",
          "FI",
          "FR",
          "GB",
          "GR",
          "GT",
          "HK",
          "HN",
          "HU",
          "ID",
          "IE",
          "IL",
          "IS",
          "IT",
          "JP",
          "LI",
          "LT",
          "LU",
          "LV",
          "MC",
          "MT",
          "MX",
          "MY",
          "NI",
          "NL",
          "NO",
          "NZ",
          "PA",
          "PE",
          "PH",
          "PL",
          "PT",
          "PY",
          "RO",
          "SE",
          "SG",
          "SK",
          "SV",
          "TH",
          "TR",
          "TW",
          "US",
          "UY",
          "VN",
          "ZA"
        ],
        "external_urls": {
          "spotify": "https://open.spotify.com/album/20SORgtgHYtIn2xjpjXres"
        },
        "href": "https://api.spotify.com/v1/albums/20SORgtgHYtIn2xjpjXres",
        "id": "20SORgtgHYtIn2xjpjXres",
        "images": [
          {
            "height": 640,
            "url": "https://i.scdn.co/image/e13a72a47d690f1bec65cb486396a1fc478d8ddd",
            "width": 640
          },
          {
            "height": 300,
            "url": "https://i.scdn.co/image/ac330531601c979d4cec75c31f7177b7960dd337",
            "width": 300
          },
          {
            "height": 64,
            "url": "https://i.scdn.co/image/78f137fcbc05aee3f2de49fbc209ce538637fa93",
            "width": 64
          }
        ],
        "name": "Roll With Me (feat. Shungudzo & ZieZie)",
        "release_date": "2018-09-21",
        "release_date_precision": "day",
        "total_tracks": 1,
        "type": "album",
        "uri": "spotify:album:20SORgtgHYtIn2xjpjXres"
      },
      {
        "album_type": "single",
        "artists": [
          {
            "external_urls": {
              "spotify": "https://open.spotify.com/artist/6vXTefBL93Dj5IqAWq6OTv"
            },
            "href": "https://api.spotify.com/v1/artists/6vXTefBL93Dj5IqAWq6OTv",
            "id": "6vXTefBL93Dj5IqAWq6OTv",
            "name": "French Montana",
            "type": "artist",
            "uri": "spotify:artist:6vXTefBL93Dj5IqAWq6OTv"
          }
        ],
        "available_markets": [
          "AD",
          "AR",
          "AT",
          "AU",
          "BE",
          "BG",
          "BO",
          "BR",
          "CA",
          "CH",
          "CL",
          "CO",
          "CR",
          "CY",
          "CZ",
          "DE",
          "DK",
          "DO",
          "EC",
          "EE",
          "ES",
          "FI",
          "FR",
          "GB",
          "GR",
          "GT",
          "HK",
          "HN",
          "HU",
          "ID",
          "IE",
          "IL",
          "IS",
          "IT",
          "JP",
          "LI",
          "LT",
          "LU",
          "LV",
          "MC",
          "MT",
          "MX",
          "MY",
          "NI",
          "NL",
          "NO",
          "NZ",
          "PA",
          "PE",
          "PH",
          "PL",
          "PT",
          "PY",
          "RO",
          "SE",
          "SG",
          "SK",
          "SV",
          "TH",
          "TR",
          "TW",
          "US",
          "UY",
          "VN",
          "ZA"
        ],
        "external_urls": {
          "spotify": "https://open.spotify.com/album/0DMvfJWc1DjSbmnJF1NW1o"
        },
        "href": "https://api.spotify.com/v1/albums/0DMvfJWc1DjSbmnJF1NW1o",
        "id": "0DMvfJWc1DjSbmnJF1NW1o",
        "images": [
          {
            "height": 640,
            "url": "https://i.scdn.co/image/6d41ca1b60639976ed0b39ddad609e27297090fd",
            "width": 640
          },
          {
            "height": 300,
            "url": "https://i.scdn.co/image/6bee7f34059ddb30c24c564e5801b78b49de2b9f",
            "width": 300
          },
          {
            "height": 64,
            "url": "https://i.scdn.co/image/9f66196f5a87988865cd805ff19f0819f387cb69",
            "width": 64
          }
        ],
        "name": "No Stylist",
        "release_date": "2018-09-20",
        "release_date_precision": "day",
        "total_tracks": 3,
        "type": "album",
        "uri": "spotify:album:0DMvfJWc1DjSbmnJF1NW1o"
      },
      {
        "album_type": "single",
        "artists": [
          {
            "external_urls": {
              "spotify": "https://open.spotify.com/artist/0XHiH53dHrvbwfjYM7en7I"
            },
            "href": "https://api.spotify.com/v1/artists/0XHiH53dHrvbwfjYM7en7I",
            "id": "0XHiH53dHrvbwfjYM7en7I",
            "name": "Chris Cornell",
            "type": "artist",
            "uri": "spotify:artist:0XHiH53dHrvbwfjYM7en7I"
          }
        ],
        "available_markets": [
          "AD",
          "AR",
          "AT",
          "AU",
          "BE",
          "BG",
          "BO",
          "BR",
          "CA",
          "CH",
          "CL",
          "CO",
          "CR",
          "CY",
          "CZ",
          "DE",
          "DK",
          "DO",
          "EC",
          "EE",
          "ES",
          "FI",
          "FR",
          "GB",
          "GR",
          "GT",
          "HK",
          "HN",
          "HU",
          "ID",
          "IE",
          "IL",
          "IS",
          "IT",
          "JP",
          "LI",
          "LT",
          "LU",
          "LV",
          "MC",
          "MT",
          "MX",
          "MY",
          "NI",
          "NL",
          "NO",
          "NZ",
          "PA",
          "PE",
          "PH",
          "PL",
          "PT",
          "PY",
          "RO",
          "SE",
          "SG",
          "SK",
          "SV",
          "TH",
          "TR",
          "TW",
          "US",
          "UY",
          "VN",
          "ZA"
        ],
        "external_urls": {
          "spotify": "https://open.spotify.com/album/48oEcEIK8UTubZ6c0PXRzN"
        },
        "href": "https://api.spotify.com/v1/albums/48oEcEIK8UTubZ6c0PXRzN",
        "id": "48oEcEIK8UTubZ6c0PXRzN",
        "images": [
          {
            "height": 640,
            "url": "https://i.scdn.co/image/82220b5a72033fd1090d745dc87b5b3aa2730955",
            "width": 640
          },
          {
            "height": 300,
            "url": "https://i.scdn.co/image/de33f1b5f2f1259a2168d04be4d99c1ad2b3b9bb",
            "width": 300
          },
          {
            "height": 64,
            "url": "https://i.scdn.co/image/08e2da84f6e258df69abe77bfdc3a4db89dd168c",
            "width": 64
          }
        ],
        "name": "When Bad Does Good",
        "release_date": "2018-09-21",
        "release_date_precision": "day",
        "total_tracks": 1,
        "type": "album",
        "uri": "spotify:album:48oEcEIK8UTubZ6c0PXRzN"
      },
      {
        "album_type": "album",
        "artists": [
          {
            "external_urls": {
              "spotify": "https://open.spotify.com/artist/1Bl6wpkWCQ4KVgnASpvzzA"
            },
            "href": "https://api.spotify.com/v1/artists/1Bl6wpkWCQ4KVgnASpvzzA",
            "id": "1Bl6wpkWCQ4KVgnASpvzzA",
            "name": "BROCKHAMPTON",
            "type": "artist",
            "uri": "spotify:artist:1Bl6wpkWCQ4KVgnASpvzzA"
          }
        ],
        "available_markets": [
          "AD",
          "AR",
          "AT",
          "AU",
          "BE",
          "BG",
          "BO",
          "BR",
          "CA",
          "CH",
          "CL",
          "CO",
          "CR",
          "CY",
          "CZ",
          "DE",
          "DK",
          "DO",
          "EC",
          "EE",
          "ES",
          "FI",
          "FR",
          "GB",
          "GR",
          "GT",
          "HK",
          "HN",
          "HU",
          "ID",
          "IE",
          "IL",
          "IS",
          "IT",
          "JP",
          "LI",
          "LT",
          "LU",
          "LV",
          "MC",
          "MT",
          "MX",
          "MY",
          "NI",
          "NL",
          "NO",
          "NZ",
          "PA",
          "PE",
          "PH",
          "PL",
          "PT",
          "PY",
          "RO",
          "SE",
          "SG",
          "SK",
          "SV",
          "TH",
          "TR",
          "TW",
          "US",
          "UY",
          "VN",
          "ZA"
        ],
        "external_urls": {
          "spotify": "https://open.spotify.com/album/3Mj4A4nNJzIdxOyS4yzOhj"
        },
        "href": "https://api.spotify.com/v1/albums/3Mj4A4nNJzIdxOyS4yzOhj",
        "id": "3Mj4A4nNJzIdxOyS4yzOhj",
        "images": [
          {
            "height": 640,
            "url": "https://i.scdn.co/image/37a82f2595544d0dab4b3ecf3a20acc35f129e8f",
            "width": 640
          },
          {
            "height": 300,
            "url": "https://i.scdn.co/image/20b05a74b2f8d9e493588776c6c69e9507eb1271",
            "width": 300
          },
          {
            "height": 64,
            "url": "https://i.scdn.co/image/e58f8cf266cbf1f7310fde6c226cbc80b0a7f779",
            "width": 64
          }
        ],
        "name": "iridescence",
        "release_date": "2018-09-21",
        "release_date_precision": "day",
        "total_tracks": 15,
        "type": "album",
        "uri": "spotify:album:3Mj4A4nNJzIdxOyS4yzOhj"
      },
      {
        "album_type": "single",
        "artists": [
          {
            "external_urls": {
              "spotify": "https://open.spotify.com/artist/5LHRHt1k9lMyONurDHEdrp"
            },
            "href": "https://api.spotify.com/v1/artists/5LHRHt1k9lMyONurDHEdrp",
            "id": "5LHRHt1k9lMyONurDHEdrp",
            "name": "Tyga",
            "type": "artist",
            "uri": "spotify:artist:5LHRHt1k9lMyONurDHEdrp"
          }
        ],
        "available_markets": [
          "AD",
          "AR",
          "AT",
          "AU",
          "BE",
          "BG",
          "BO",
          "BR",
          "CA",
          "CH",
          "CL",
          "CO",
          "CR",
          "CY",
          "CZ",
          "DE",
          "DK",
          "DO",
          "EC",
          "EE",
          "ES",
          "FI",
          "FR",
          "GB",
          "GR",
          "GT",
          "HK",
          "HN",
          "HU",
          "ID",
          "IE",
          "IL",
          "IS",
          "IT",
          "JP",
          "LI",
          "LT",
          "LU",
          "LV",
          "MC",
          "MT",
          "MX",
          "MY",
          "NI",
          "NL",
          "NO",
          "NZ",
          "PA",
          "PE",
          "PH",
          "PL",
          "PT",
          "PY",
          "RO",
          "SE",
          "SG",
          "SK",
          "SV",
          "TH",
          "TR",
          "TW",
          "US",
          "UY",
          "VN",
          "ZA"
        ],
        "external_urls": {
          "spotify": "https://open.spotify.com/album/5oAJLGCjjlaa4EM4Rxmjza"
        },
        "href": "https://api.spotify.com/v1/albums/5oAJLGCjjlaa4EM4Rxmjza",
        "id": "5oAJLGCjjlaa4EM4Rxmjza",
        "images": [
          {
            "height": 640,
            "url": "https://i.scdn.co/image/dfefb467a4828ab44d8f2297e6dada55a644140e",
            "width": 640
          },
          {
            "height": 300,
            "url": "https://i.scdn.co/image/440cabd858bf9a326b95299a5dba4ecf869a5ed1",
            "width": 300
          },
          {
            "height": 64,
            "url": "https://i.scdn.co/image/b7ebabd6376436af187d5a9caf9c5b8e84b4ef5c",
            "width": 64
          }
        ],
        "name": "Dip",
        "release_date": "2018-09-18",
        "release_date_precision": "day",
        "total_tracks": 1,
        "type": "album",
        "uri": "spotify:album:5oAJLGCjjlaa4EM4Rxmjza"
      },
      {
        "album_type": "single",
        "artists": [
          {
            "external_urls": {
              "spotify": "https://open.spotify.com/artist/2kCcBybjl3SAtIcwdWpUe3"
            },
            "href": "https://api.spotify.com/v1/artists/2kCcBybjl3SAtIcwdWpUe3",
            "id": "2kCcBybjl3SAtIcwdWpUe3",
            "name": "Lil Peep",
            "type": "artist",
            "uri": "spotify:artist:2kCcBybjl3SAtIcwdWpUe3"
          },
          {
            "external_urls": {
              "spotify": "https://open.spotify.com/artist/15UsOTVnJzReFVN1VCnxy4"
            },
            "href": "https://api.spotify.com/v1/artists/15UsOTVnJzReFVN1VCnxy4",
            "id": "15UsOTVnJzReFVN1VCnxy4",
            "name": "XXXTENTACION",
            "type": "artist",
            "uri": "spotify:artist:15UsOTVnJzReFVN1VCnxy4"
          }
        ],
        "available_markets": [
          "AD",
          "AR",
          "AT",
          "AU",
          "BE",
          "BG",
          "BO",
          "BR",
          "CA",
          "CH",
          "CL",
          "CO",
          "CR",
          "CY",
          "CZ",
          "DE",
          "DK",
          "DO",
          "EC",
          "EE",
          "ES",
          "FI",
          "FR",
          "GB",
          "GR",
          "GT",
          "HK",
          "HN",
          "HU",
          "ID",
          "IE",
          "IL",
          "IS",
          "IT",
          "JP",
          "LI",
          "LT",
          "LU",
          "LV",
          "MC",
          "MT",
          "MX",
          "MY",
          "NI",
          "NL",
          "NO",
          "NZ",
          "PA",
          "PE",
          "PH",
          "PL",
          "PT",
          "PY",
          "RO",
          "SE",
          "SG",
          "SK",
          "SV",
          "TH",
          "TR",
          "TW",
          "US",
          "UY",
          "VN",
          "ZA"
        ],
        "external_urls": {
          "spotify": "https://open.spotify.com/album/3J0AWftMu0tsXw22obufYn"
        },
        "href": "https://api.spotify.com/v1/albums/3J0AWftMu0tsXw22obufYn",
        "id": "3J0AWftMu0tsXw22obufYn",
        "images": [
          {
            "height": 640,
            "url": "https://i.scdn.co/image/f3283815bee8f5fe3c721cbcc59757e45642118d",
            "width": 640
          },
          {
            "height": 300,
            "url": "https://i.scdn.co/image/15d9bb6de5f51a0a93c2a4a1539556a3ad1c2161",
            "width": 300
          },
          {
            "height": 64,
            "url": "https://i.scdn.co/image/f3b1fda0dab60cc86a4dbf0c299545e3647d4fbc",
            "width": 64
          }
        ],
        "name": "Falling Down",
        "release_date": "2018-09-19",
        "release_date_precision": "day",
        "total_tracks": 1,
        "type": "album",
        "uri": "spotify:album:3J0AWftMu0tsXw22obufYn"
      },
      {
        "album_type": "single",
        "artists": [
          {
            "external_urls": {
              "spotify": "https://open.spotify.com/artist/5CCwRZC6euC8Odo6y9X8jr"
            },
            "href": "https://api.spotify.com/v1/artists/5CCwRZC6euC8Odo6y9X8jr",
            "id": "5CCwRZC6euC8Odo6y9X8jr",
            "name": "Rita Ora",
            "type": "artist",
            "uri": "spotify:artist:5CCwRZC6euC8Odo6y9X8jr"
          }
        ],
        "available_markets": [
          "AD",
          "AR",
          "AT",
          "AU",
          "BE",
          "BG",
          "BO",
          "BR",
          "CA",
          "CH",
          "CL",
          "CO",
          "CR",
          "CY",
          "CZ",
          "DE",
          "DK",
          "DO",
          "EC",
          "EE",
          "ES",
          "FI",
          "FR",
          "GB",
          "GR",
          "GT",
          "HK",
          "HN",
          "HU",
          "ID",
          "IE",
          "IL",
          "IS",
          "IT",
          "JP",
          "LI",
          "LT",
          "LU",
          "LV",
          "MC",
          "MT",
          "MX",
          "MY",
          "NI",
          "NL",
          "NO",
          "NZ",
          "PA",
          "PE",
          "PH",
          "PL",
          "PT",
          "PY",
          "RO",
          "SE",
          "SG",
          "SK",
          "SV",
          "TH",
          "TR",
          "TW",
          "US",
          "UY",
          "VN",
          "ZA"
        ],
        "external_urls": {
          "spotify": "https://open.spotify.com/album/4INRJMYMJrSPsf5mbW26Fm"
        },
        "href": "https://api.spotify.com/v1/albums/4INRJMYMJrSPsf5mbW26Fm",
        "id": "4INRJMYMJrSPsf5mbW26Fm",
        "images": [
          {
            "height": 640,
            "url": "https://i.scdn.co/image/33560f7b24998d50aa34f79b47ebd4306d991bcc",
            "width": 640
          },
          {
            "height": 300,
            "url": "https://i.scdn.co/image/b0570917472e353926801aae9e533f2515f39b64",
            "width": 300
          },
          {
            "height": 64,
            "url": "https://i.scdn.co/image/a6c16ecbc6434ce94278711a23cb6edebc2cad9d",
            "width": 64
          }
        ],
        "name": "Let You Love Me",
        "release_date": "2018-09-21",
        "release_date_precision": "day",
        "total_tracks": 1,
        "type": "album",
        "uri": "spotify:album:4INRJMYMJrSPsf5mbW26Fm"
      },
      {
        "album_type": "single",
        "artists": [
          {
            "external_urls": {
              "spotify": "https://open.spotify.com/artist/11BUDylkl50Y6dsbZMZiCG"
            },
            "href": "https://api.spotify.com/v1/artists/11BUDylkl50Y6dsbZMZiCG",
            "id": "11BUDylkl50Y6dsbZMZiCG",
            "name": "Nephew",
            "type": "artist",
            "uri": "spotify:artist:11BUDylkl50Y6dsbZMZiCG"
          }
        ],
        "available_markets": [
          "AD",
          "AR",
          "AT",
          "AU",
          "BE",
          "BG",
          "BO",
          "BR",
          "CA",
          "CH",
          "CL",
          "CO",
          "CR",
          "CY",
          "CZ",
          "DE",
          "DK",
          "DO",
          "EC",
          "EE",
          "ES",
          "FI",
          "FR",
          "GB",
          "GR",
          "GT",
          "HK",
          "HN",
          "HU",
          "ID",
          "IE",
          "IL",
          "IS",
          "IT",
          "JP",
          "LI",
          "LT",
          "LU",
          "LV",
          "MC",
          "MT",
          "MX",
          "MY",
          "NI",
          "NL",
          "NO",
          "NZ",
          "PA",
          "PE",
          "PH",
          "PL",
          "PT",
          "PY",
          "RO",
          "SE",
          "SG",
          "SK",
          "SV",
          "TH",
          "TR",
          "TW",
          "US",
          "UY",
          "VN",
          "ZA"
        ],
        "external_urls": {
          "spotify": "https://open.spotify.com/album/6iQZmn17Ak84cGwA4IhNSh"
        },
        "href": "https://api.spotify.com/v1/albums/6iQZmn17Ak84cGwA4IhNSh",
        "id": "6iQZmn17Ak84cGwA4IhNSh",
        "images": [
          {
            "height": 640,
            "url": "https://i.scdn.co/image/ff00b4b44bf25a710eaf0d43e9bc0cae7b08c6dc",
            "width": 640
          },
          {
            "height": 300,
            "url": "https://i.scdn.co/image/6e529370a1d3163071a7ca31e2350d87f7cbd105",
            "width": 300
          },
          {
            "height": 64,
            "url": "https://i.scdn.co/image/16c872bee8a3a8e81753c0473cdf770676d5bc06",
            "width": 64
          }
        ],
        "name": "Efterår—i—Ring",
        "release_date": "2018-09-21",
        "release_date_precision": "day",
        "total_tracks": 3,
        "type": "album",
        "uri": "spotify:album:6iQZmn17Ak84cGwA4IhNSh"
      }
    ],
    "limit": 10,
    "next": "https://api.spotify.com/v1/browse/new-releases?country=SE&offset=15&limit=10",
    "offset": 5,
    "previous": "https://api.spotify.com/v1/browse/new-releases?country=SE&offset=0&limit=10",
    "total": 500
  }
}